<?xml version="1.0" encoding="UTF-8" standalone="no"?>
<!DOCTYPE svg PUBLIC "-//W3C//DTD SVG 1.1//EN" "http://www.w3.org/Graphics/SVG/1.1/DTD/svg11.dtd">
<!-- Generated by Microsoft Visio, SVG Export product_concept.svg Page-1 -->
<svg xmlns="http://www.w3.org/2000/svg" xmlns:xlink="http://www.w3.org/1999/xlink" xmlns:ev="http://www.w3.org/2001/xml-events"
		xmlns:v="http://schemas.microsoft.com/visio/2003/SVGExtensions/" width="7.71978in" height="6.76719in"
		viewBox="0 0 555.825 487.238" xml:space="preserve" color-interpolation-filters="sRGB" class="st5">
	<v:documentProperties v:langID="1044" v:metric="true" v:viewMarkup="false">
		<v:userDefs>
			<v:ud v:nameU="msvNoAutoConnect" v:val="VT0(1):26"/>
		</v:userDefs>
	</v:documentProperties>

	<style type="text/css">
	<![CDATA[
		.st1 {fill:#000000;stroke:none;stroke-linecap:butt;stroke-width:9.5625}
		.st2 {fill:#000000}
		.st3 {stroke:#000000;stroke-linecap:round;stroke-linejoin:round;stroke-width:1.5}
		.st4 {fill:#000000;stroke:none;stroke-linecap:butt;stroke-width:1.2541}
		.st5 {fill:none;fill-rule:evenodd;font-size:12px;overflow:visible;stroke-linecap:square;stroke-miterlimit:3}
	]]>
	</style>

	<g v:mID="0" v:index="1" v:groupContext="foregroundPage">
		<title>Page-1</title>
		<v:pageProperties v:drawingScale="0.0393701" v:pageScale="0.0393701" v:drawingUnits="24" v:shadowOffsetX="9"
				v:shadowOffsetY="-9"/>
		<g id="group4-1" transform="translate(27.5625,-171.379)" v:mID="4" v:groupContext="group">
			<title>Sheet.4</title>
			<g id="group5-2" v:mID="5" v:groupContext="group">
				<title>Brain-power_1_</title>
				<g id="shape6-3" v:mID="6" v:groupContext="shape" transform="translate(32.431,-89.3477)">
					<title>Sheet.6</title>
					<path d="M6.25 474.74 C2.8 474.74 0 477.54 0 480.99 C0 484.43 2.8 487.24 6.25 487.24 C9.69 487.24 12.5 484.43
								 12.5 480.99 C12.5 477.54 9.69 474.74 6.25 474.74 ZM6.25 485.17 C3.94 485.17 2.06 483.3 2.06 480.99
								 C2.06 478.68 3.94 476.81 6.25 476.81 C8.56 476.81 10.43 478.68 10.43 480.99 C10.43 483.3 8.56 485.17
								 6.25 485.17 Z" class="st1"/>
				</g>
				<g id="shape7-5" v:mID="7" v:groupContext="shape" transform="translate(19.6939,-53.9926)">
					<title>Sheet.7</title>
					<path d="M58.09 453.44 C57.49 451.76 56.56 450.23 55.32 448.89 C55.01 448.55 54.52 448.45 54.1 448.63 L51.5 449.74
								 C50.63 449.07 49.64 448.53 48.59 448.14 L48.32 445.53 C48.27 445.05 47.91 444.66 47.44 444.58 C45.62
								 444.23 43.77 444.23 41.94 444.58 C41.47 444.66 41.11 445.05 41.07 445.53 L40.79 448.14 C39.74 448.53
								 38.75 449.07 37.88 449.74 L36.49 449.14 C36.79 448.99 37.01 448.71 37.06 448.36 C37.33 446.55 37.33
								 444.72 37.06 442.9 C36.99 442.42 36.59 442.05 36.11 442.01 L32.28 441.71 C31.98 440.69 31.58 439.71
								 31.07 438.79 L33.56 435.86 C33.88 435.49 33.9 434.95 33.61 434.56 C32.52 433.08 31.22 431.79 29.75
								 430.7 C29.35 430.4 28.81 430.42 28.44 430.74 L25.52 433.24 C24.59 432.72 23.61 432.32 22.59 432.02
								 L22.29 428.2 C22.25 427.71 21.88 427.31 21.4 427.24 C19.59 426.97 17.75 426.97 15.94 427.24 C15.45
								 427.31 15.08 427.71 15.05 428.2 L14.74 432.02 C13.72 432.32 12.75 432.72 11.82 433.24 L8.9 430.74
								 C8.52 430.42 7.98 430.41 7.59 430.7 C6.12 431.78 4.82 433.08 3.73 434.55 C3.44 434.95 3.46 435.49
								 3.77 435.86 L6.27 438.79 C5.76 439.71 5.35 440.69 5.06 441.71 L1.23 442.01 C0.74 442.05 0.34 442.42
								 0.27 442.9 C0 444.72 0 446.55 0.27 448.37 C0.34 448.85 0.74 449.22 1.23 449.26 L5.06 449.56 C5.35
								 450.58 5.76 451.56 6.27 452.48 L3.77 455.41 C3.46 455.78 3.44 456.32 3.73 456.71 C4.82 458.19 6.12
								 459.48 7.59 460.57 C7.98 460.86 8.53 460.85 8.9 460.53 L11.82 458.03 C12.75 458.54 13.72 458.95
								 14.74 459.24 L15.05 463.07 C15.08 463.56 15.45 463.96 15.94 464.03 C16.84 464.17 17.76 464.23 18.67
								 464.23 C19.58 464.23 20.49 464.17 21.4 464.03 C21.88 463.96 22.25 463.56 22.29 463.07 L22.59 459.24
								 C23.61 458.95 24.59 458.54 25.52 458.03 L28.44 460.53 C28.61 460.67 28.82 460.74 29.03 460.76 C27.46
								 460.43 25.86 460.36 24.27 460.58 C23.83 460.64 23.48 460.97 23.41 461.41 L22.97 464.06 C21.9 464.38
								 20.88 464.88 19.97 465.51 L17.47 464.24 C17.09 464.05 16.62 464.12 16.31 464.42 C15.03 465.67 14.03
								 467.14 13.33 468.78 C13.15 469.2 13.28 469.69 13.64 469.97 L15.79 471.66 C15.56 472.7 15.49 473.78
								 15.6 474.83 L13.25 476.27 C12.86 476.5 12.68 476.97 12.8 477.4 C13.29 479.11 14.11 480.68 15.23
								 482.08 C15.5 482.42 15.96 482.54 16.36 482.39 L19 481.42 C19.83 482.15 20.77 482.75 21.79 483.2
								 L21.9 485.87 C21.92 486.32 22.23 486.7 22.66 486.81 C23.81 487.09 24.98 487.24 26.15 487.24 C26.78
								 487.24 27.41 487.2 28.04 487.11 C28.48 487.05 28.83 486.72 28.91 486.28 L29.34 483.63 C30.41 483.3
								 31.43 482.81 32.34 482.18 L34.84 483.45 C35.23 483.64 35.69 483.57 36 483.27 C37.28 482.02 38.29
								 480.55 38.98 478.9 C39.16 478.49 39.03 478 38.67 477.72 L36.52 476.03 C36.75 474.98 36.82 473.92
								 36.71 472.86 L39.07 471.42 C39.45 471.19 39.63 470.72 39.51 470.29 C39.07 468.75 38.35 467.33 37.4
								 466.04 L37.88 465.84 C38.76 466.51 39.74 467.05 40.79 467.43 L41.07 470.05 C41.11 470.52 41.47 470.91
								 41.94 471 C42.85 471.17 43.77 471.26 44.69 471.26 C45.61 471.26 46.53 471.17 47.45 471 C47.91 470.91
								 48.27 470.52 48.32 470.05 L48.59 467.43 C49.64 467.05 50.63 466.51 51.5 465.84 L54.1 466.95 C54.52
								 467.13 55.01 467.03 55.32 466.69 C56.56 465.35 57.49 463.82 58.09 462.13 C58.26 461.67 58.09 461.15
								 57.69 460.87 L55.43 459.34 C55.59 458.31 55.59 457.26 55.43 456.24 L57.69 454.7 C58.09 454.42 58.26
								 453.91 58.09 453.44 ZM31.48 452.97 L31.07 452.48 C31.58 451.56 31.98 450.58 32.28 449.56 L33.59
								 449.46 C32.7 450.52 32 451.7 31.48 452.97 ZM26.31 455.95 C25.96 455.65 25.46 455.62 25.07 455.86
								 C23.93 456.57 22.68 457.09 21.37 457.39 C20.92 457.49 20.59 457.88 20.55 458.33 L20.26 462.05 C19.2
								 462.16 18.13 462.16 17.07 462.05 L16.78 458.33 C16.74 457.88 16.42 457.49 15.97 457.39 C14.65 457.09
								 13.41 456.57 12.27 455.86 C11.88 455.61 11.37 455.65 11.02 455.95 L8.18 458.37 C7.36 457.7 6.61
								 456.94 5.93 456.12 L8.35 453.28 C8.65 452.93 8.69 452.43 8.45 452.04 C7.73 450.9 7.22 449.65 6.91
								 448.33 C6.81 447.89 6.43 447.56 5.97 447.52 L2.25 447.23 C2.15 446.17 2.15 445.1 2.25 444.04 L5.97
								 443.75 C6.43 443.71 6.81 443.38 6.91 442.94 C7.22 441.62 7.73 440.37 8.45 439.23 C8.69 438.84 8.65
								 438.34 8.35 437.99 L5.93 435.15 C6.61 434.33 7.36 433.57 8.18 432.9 L11.02 435.32 C11.37 435.62
								 11.88 435.66 12.27 435.41 C13.41 434.7 14.65 434.18 15.97 433.88 C16.42 433.78 16.74 433.39 16.78
								 432.94 L17.07 429.22 C18.13 429.11 19.2 429.11 20.26 429.22 L20.55 432.94 C20.59 433.39 20.92 433.78
								 21.37 433.88 C22.68 434.18 23.93 434.7 25.07 435.41 C25.46 435.65 25.96 435.62 26.31 435.32 L29.15
								 432.9 C29.97 433.57 30.73 434.33 31.4 435.15 L28.98 437.99 C28.68 438.34 28.64 438.84 28.89 439.23
								 C29.6 440.37 30.12 441.62 30.43 442.94 C30.53 443.38 30.91 443.71 31.37 443.75 L35.09 444.04 C35.19
								 445.1 35.19 446.17 35.09 447.23 L31.37 447.52 C30.91 447.56 30.53 447.88 30.43 448.33 C30.12 449.65
								 29.6 450.9 28.89 452.04 C28.64 452.43 28.68 452.93 28.98 453.28 L31.4 456.12 C30.73 456.94 29.97
								 457.7 29.15 458.37 L26.31 455.95 ZM29.75 460.57 C31.22 459.48 32.52 458.19 33.61 456.71 C33.74 456.54
								 33.78 456.33 33.79 456.12 L33.96 456.24 C33.8 457.26 33.8 458.31 33.96 459.34 L31.7 460.87 C31.29
								 461.15 31.12 461.67 31.29 462.13 C31.81 463.61 32.61 464.95 33.62 466.16 L33.31 466.27 C32.48 465.54
								 31.53 464.94 30.52 464.49 L30.41 461.82 C30.39 461.37 30.08 460.99 29.65 460.88 C29.47 460.84 29.29
								 460.81 29.1 460.77 C29.33 460.78 29.56 460.72 29.75 460.57 ZM35.1 471.48 C34.75 471.69 34.57 472.1
								 34.63 472.51 C34.84 473.72 34.77 474.94 34.41 476.13 C34.29 476.53 34.43 476.96 34.76 477.21 L36.81
								 478.81 C36.35 479.72 35.77 480.56 35.09 481.31 L32.7 480.1 C32.34 479.93 31.93 479.97 31.62 480.21
								 C30.62 481 29.48 481.55 28.22 481.85 C27.83 481.95 27.53 482.27 27.46 482.67 L27.05 485.19 C25.99
								 485.27 24.93 485.21 23.88 485.01 L23.78 482.46 C23.76 482.06 23.5 481.7 23.12 481.56 C21.92 481.13
								 20.83 480.43 19.95 479.55 C19.67 479.27 19.26 479.18 18.89 479.31 L16.37 480.24 C15.78 479.41 15.31
								 478.52 14.97 477.57 L17.21 476.21 C17.56 476 17.75 475.59 17.68 475.18 C17.47 473.97 17.54 472.75
								 17.9 471.56 C18.02 471.16 17.88 470.73 17.56 470.48 L15.5 468.88 C15.96 467.97 16.54 467.13 17.22
								 466.38 L19.61 467.59 C19.96 467.76 20.38 467.72 20.69 467.48 C21.68 466.7 22.85 466.13 24.09 465.84
								 C24.48 465.75 24.78 465.42 24.85 465.02 L25.27 462.5 C26.33 462.42 27.38 462.48 28.43 462.68 L28.53
								 465.23 C28.55 465.63 28.81 465.99 29.2 466.13 C30.38 466.56 31.48 467.26 32.36 468.14 C32.64 468.42
								 33.06 468.51 33.42 468.38 L35.94 467.44 C36.53 468.27 37 469.17 37.34 470.12 L35.1 471.48 ZM53.62
								 454.85 C53.25 455.1 53.07 455.56 53.18 456 C53.46 457.17 53.46 458.41 53.18 459.58 C53.07 460.01
								 53.25 460.47 53.62 460.72 L55.75 462.17 C55.36 463.06 54.85 463.89 54.23 464.65 L51.75 463.59 C51.37
								 463.43 50.93 463.5 50.62 463.77 C49.67 464.6 48.52 465.23 47.28 465.59 C46.86 465.72 46.56 466.08
								 46.51 466.52 L46.25 469 C45.21 469.13 44.17 469.13 43.13 469 L42.87 466.52 C42.82 466.08 42.52 465.72
								 42.1 465.59 C40.86 465.23 39.71 464.6 38.77 463.77 C38.45 463.5 38.01 463.43 37.63 463.59 L35.16
								 464.65 C34.54 463.89 34.03 463.06 33.63 462.17 L35.77 460.72 C36.14 460.47 36.31 460.02 36.21 459.58
								 C35.93 458.41 35.93 457.17 36.21 456 C36.31 455.56 36.14 455.1 35.77 454.85 L33.63 453.4 C34.03
								 452.52 34.54 451.69 35.16 450.92 L37.63 451.98 C38.02 452.15 38.46 452.08 38.77 451.8 C39.71 450.98
								 40.86 450.35 42.1 449.99 C42.52 449.86 42.82 449.5 42.87 449.06 L43.13 446.58 C44.17 446.45 45.21
								 446.45 46.25 446.58 L46.51 449.06 C46.56 449.5 46.86 449.86 47.28 449.99 C48.52 450.35 49.67 450.98
								 50.62 451.8 C50.93 452.08 51.37 452.15 51.75 451.98 L54.23 450.92 C54.85 451.69 55.36 452.52 55.75
								 453.4 L53.62 454.85 Z" class="st1"/>
				</g>
				<g id="shape8-7" v:mID="8" v:groupContext="shape">
					<title>Sheet.8</title>
					<path d="M107.5 423.54 C107.46 423.07 107.26 422.62 106.93 422.28 C106.86 422.2 99.79 414.8 95.39 408.51 C97.65
								 400.35 96.71 392.94 95.87 389 C97.09 388.92 98.38 388.57 99.27 387.64 C99.81 387.06 100.63 385.79
								 100.04 383.7 C94.47 363.84 82.17 362.48 78.93 362.48 C78.92 362.48 78.9 362.48 78.89 362.48 C76.25
								 361 64.72 355.13 48.82 355.12 C32.89 355.16 0 365.34 0 396.57 C0 414.28 5.63 423.42 10.61 431.49
								 C14.33 437.55 17.56 442.78 17.23 450.63 C16.64 465.12 5.34 483.91 5.22 484.1 C4.84 484.74 4.82 485.54
								 5.19 486.19 C5.56 486.84 6.24 487.24 6.99 487.24 L68.52 487.24 C69.16 487.24 69.76 486.94 70.15
								 486.43 C70.54 485.93 70.68 485.27 70.52 484.65 C69.76 481.75 68.43 473.41 71.33 469.6 C72.35 468.25
								 73.86 467.58 75.94 467.55 C84.98 467.41 90.49 465.89 93.27 462.79 C95.95 459.8 95.6 456.09 95.29
								 452.83 C95.17 451.6 95.06 450.43 95.11 449.36 C96.41 448.3 97.15 447.18 97.36 445.96 C97.59 444.62
								 97.13 443.54 96.63 442.73 C98.92 442.03 99.89 440.7 100.3 439.67 C101.22 437.38 100.26 434.8 98.78
								 432.24 C107.69 429.19 107.55 424.15 107.5 423.54 ZM95.1 429.02 C94.45 429.18 93.92 429.65 93.67
								 430.27 C93.43 430.89 93.5 431.59 93.87 432.15 C94.64 433.33 96.97 436.89 96.47 438.14 C96.36 438.42
								 95.87 438.68 95.12 438.86 C94.33 439.04 92.48 439.48 91.9 441.07 C91.37 442.5 92.23 443.67 92.75
								 444.37 C92.93 444.63 93.28 445.1 93.29 445.26 C93.29 445.26 93.19 445.72 91.97 446.55 C91.49 446.88
								 91.17 447.39 91.09 447.97 C90.85 449.72 91.02 451.5 91.18 453.22 C91.44 455.99 91.67 458.39 90.2
								 460.03 C88.29 462.16 83.47 463.3 75.87 463.42 C72.54 463.47 69.83 464.74 68.04 467.1 C64.61 471.61
								 65.3 479.15 65.98 483.11 L10.54 483.11 C13.91 476.93 20.86 462.82 21.36 450.8 C21.73 441.68 18.03
								 435.68 14.12 429.33 C9.44 421.72 4.13 413.11 4.13 396.57 C4.13 368.45 34.25 359.29 48.83 359.25
								 C48.89 359.25 48.94 359.25 48.99 359.25 C65.46 359.25 77.18 366.26 77.29 366.33 C77.68 366.56 78.12
								 366.66 78.58 366.62 C78.68 366.6 90.68 365.62 96.07 384.81 L96.07 384.82 C95.52 384.94 94.44 384.89
								 93.59 384.7 C92.86 384.54 92.1 384.79 91.6 385.34 C91.1 385.89 90.94 386.68 91.18 387.38 C91.21
								 387.48 94.5 397.4 91.16 408.27 C90.98 408.86 91.07 409.51 91.42 410.02 C95.18 415.62 101.13 422.13
								 103.21 424.35 C102.76 425.38 101.11 427.53 95.1 429.02 Z" class="st1"/>
				</g>
			</g>
		</g>
		<g id="group9-9" transform="translate(146.643,-18)" v:mID="9" v:groupContext="group">
			<title>Sheet.9</title>
		</g>
		<g id="group14-10" transform="translate(183.468,-171.379)" v:mID="14" v:groupContext="group">
			<title>Sheet.14</title>
			<g id="group15-11" v:mID="15" v:groupContext="group">
				<title>Brain-power_1_</title>
				<g id="shape16-12" v:mID="16" v:groupContext="shape" transform="translate(32.431,-89.3477)">
					<title>Sheet.16</title>
					<path d="M6.25 474.74 C2.8 474.74 0 477.54 0 480.99 C0 484.43 2.8 487.24 6.25 487.24 C9.69 487.24 12.5 484.43
								 12.5 480.99 C12.5 477.54 9.69 474.74 6.25 474.74 ZM6.25 485.17 C3.94 485.17 2.06 483.3 2.06 480.99
								 C2.06 478.68 3.94 476.81 6.25 476.81 C8.56 476.81 10.43 478.68 10.43 480.99 C10.43 483.3 8.56 485.17
								 6.25 485.17 Z" class="st1"/>
				</g>
				<g id="shape17-14" v:mID="17" v:groupContext="shape" transform="translate(19.6939,-53.9926)">
					<title>Sheet.17</title>
					<path d="M58.09 453.44 C57.49 451.76 56.56 450.23 55.32 448.89 C55.01 448.55 54.52 448.45 54.1 448.63 L51.5 449.74
								 C50.63 449.07 49.64 448.53 48.59 448.14 L48.32 445.53 C48.27 445.05 47.91 444.66 47.44 444.58 C45.62
								 444.23 43.77 444.23 41.94 444.58 C41.47 444.66 41.11 445.05 41.07 445.53 L40.79 448.14 C39.74 448.53
								 38.75 449.07 37.88 449.74 L36.49 449.14 C36.79 448.99 37.01 448.71 37.06 448.36 C37.33 446.55 37.33
								 444.72 37.06 442.9 C36.99 442.42 36.59 442.05 36.11 442.01 L32.28 441.71 C31.98 440.69 31.58 439.71
								 31.07 438.79 L33.56 435.86 C33.88 435.49 33.9 434.95 33.61 434.56 C32.52 433.08 31.22 431.79 29.75
								 430.7 C29.35 430.4 28.81 430.42 28.44 430.74 L25.52 433.24 C24.59 432.72 23.61 432.32 22.59 432.02
								 L22.29 428.2 C22.25 427.71 21.88 427.31 21.4 427.24 C19.59 426.97 17.75 426.97 15.94 427.24 C15.45
								 427.31 15.08 427.71 15.05 428.2 L14.74 432.02 C13.72 432.32 12.75 432.72 11.82 433.24 L8.9 430.74
								 C8.52 430.42 7.98 430.41 7.59 430.7 C6.12 431.78 4.82 433.08 3.73 434.55 C3.44 434.95 3.46 435.49
								 3.77 435.86 L6.27 438.79 C5.76 439.71 5.35 440.69 5.06 441.71 L1.23 442.01 C0.74 442.05 0.34 442.42
								 0.27 442.9 C0 444.72 0 446.55 0.27 448.37 C0.34 448.85 0.74 449.22 1.23 449.26 L5.06 449.56 C5.35
								 450.58 5.76 451.56 6.27 452.48 L3.77 455.41 C3.46 455.78 3.44 456.32 3.73 456.71 C4.82 458.19 6.12
								 459.48 7.59 460.57 C7.98 460.86 8.53 460.85 8.9 460.53 L11.82 458.03 C12.75 458.54 13.72 458.95
								 14.74 459.24 L15.05 463.07 C15.08 463.56 15.45 463.96 15.94 464.03 C16.84 464.17 17.76 464.23 18.67
								 464.23 C19.58 464.23 20.49 464.17 21.4 464.03 C21.88 463.96 22.25 463.56 22.29 463.07 L22.59 459.24
								 C23.61 458.95 24.59 458.54 25.52 458.03 L28.44 460.53 C28.61 460.67 28.82 460.74 29.03 460.76 C27.46
								 460.43 25.86 460.36 24.27 460.58 C23.83 460.64 23.48 460.97 23.41 461.41 L22.97 464.06 C21.9 464.38
								 20.88 464.88 19.97 465.51 L17.47 464.24 C17.09 464.05 16.62 464.12 16.31 464.42 C15.03 465.67 14.03
								 467.14 13.33 468.78 C13.15 469.2 13.28 469.69 13.64 469.97 L15.79 471.66 C15.56 472.7 15.49 473.78
								 15.6 474.83 L13.25 476.27 C12.86 476.5 12.68 476.97 12.8 477.4 C13.29 479.11 14.11 480.68 15.23
								 482.08 C15.5 482.42 15.96 482.54 16.36 482.39 L19 481.42 C19.83 482.15 20.77 482.75 21.79 483.2
								 L21.9 485.87 C21.92 486.32 22.23 486.7 22.66 486.81 C23.81 487.09 24.98 487.24 26.15 487.24 C26.78
								 487.24 27.41 487.2 28.04 487.11 C28.48 487.05 28.83 486.72 28.91 486.28 L29.34 483.63 C30.41 483.3
								 31.43 482.81 32.34 482.18 L34.84 483.45 C35.23 483.64 35.69 483.57 36 483.27 C37.28 482.02 38.29
								 480.55 38.98 478.9 C39.16 478.49 39.03 478 38.67 477.72 L36.52 476.03 C36.75 474.98 36.82 473.92
								 36.71 472.86 L39.07 471.42 C39.45 471.19 39.63 470.72 39.51 470.29 C39.07 468.75 38.35 467.33 37.4
								 466.04 L37.88 465.84 C38.76 466.51 39.74 467.05 40.79 467.43 L41.07 470.05 C41.11 470.52 41.47 470.91
								 41.94 471 C42.85 471.17 43.77 471.26 44.69 471.26 C45.61 471.26 46.53 471.17 47.45 471 C47.91 470.91
								 48.27 470.52 48.32 470.05 L48.59 467.43 C49.64 467.05 50.63 466.51 51.5 465.84 L54.1 466.95 C54.52
								 467.13 55.01 467.03 55.32 466.69 C56.56 465.35 57.49 463.82 58.09 462.13 C58.26 461.67 58.09 461.15
								 57.69 460.87 L55.43 459.34 C55.59 458.31 55.59 457.26 55.43 456.24 L57.69 454.7 C58.09 454.42 58.26
								 453.91 58.09 453.44 ZM31.48 452.97 L31.07 452.48 C31.58 451.56 31.98 450.58 32.28 449.56 L33.59
								 449.46 C32.7 450.52 32 451.7 31.48 452.97 ZM26.31 455.95 C25.96 455.65 25.46 455.62 25.07 455.86
								 C23.93 456.57 22.68 457.09 21.37 457.39 C20.92 457.49 20.59 457.88 20.55 458.33 L20.26 462.05 C19.2
								 462.16 18.13 462.16 17.07 462.05 L16.78 458.33 C16.74 457.88 16.42 457.49 15.97 457.39 C14.65 457.09
								 13.41 456.57 12.27 455.86 C11.88 455.61 11.37 455.65 11.02 455.95 L8.18 458.37 C7.36 457.7 6.61
								 456.94 5.93 456.12 L8.35 453.28 C8.65 452.93 8.69 452.43 8.45 452.04 C7.73 450.9 7.22 449.65 6.91
								 448.33 C6.81 447.89 6.43 447.56 5.97 447.52 L2.25 447.23 C2.15 446.17 2.15 445.1 2.25 444.04 L5.97
								 443.75 C6.43 443.71 6.81 443.38 6.91 442.94 C7.22 441.62 7.73 440.37 8.45 439.23 C8.69 438.84 8.65
								 438.34 8.35 437.99 L5.93 435.15 C6.61 434.33 7.36 433.57 8.18 432.9 L11.02 435.32 C11.37 435.62
								 11.88 435.66 12.27 435.41 C13.41 434.7 14.65 434.18 15.97 433.88 C16.42 433.78 16.74 433.39 16.78
								 432.94 L17.07 429.22 C18.13 429.11 19.2 429.11 20.26 429.22 L20.55 432.94 C20.59 433.39 20.92 433.78
								 21.37 433.88 C22.68 434.18 23.93 434.7 25.07 435.41 C25.46 435.65 25.96 435.62 26.31 435.32 L29.15
								 432.9 C29.97 433.57 30.73 434.33 31.4 435.15 L28.98 437.99 C28.68 438.34 28.64 438.84 28.89 439.23
								 C29.6 440.37 30.12 441.62 30.43 442.94 C30.53 443.38 30.91 443.71 31.37 443.75 L35.09 444.04 C35.19
								 445.1 35.19 446.17 35.09 447.23 L31.37 447.52 C30.91 447.56 30.53 447.88 30.43 448.33 C30.12 449.65
								 29.6 450.9 28.89 452.04 C28.64 452.43 28.68 452.93 28.98 453.28 L31.4 456.12 C30.73 456.94 29.97
								 457.7 29.15 458.37 L26.31 455.95 ZM29.75 460.57 C31.22 459.48 32.52 458.19 33.61 456.71 C33.74 456.54
								 33.78 456.33 33.79 456.12 L33.96 456.24 C33.8 457.26 33.8 458.31 33.96 459.34 L31.7 460.87 C31.29
								 461.15 31.12 461.67 31.29 462.13 C31.81 463.61 32.61 464.95 33.62 466.16 L33.31 466.27 C32.48 465.54
								 31.53 464.94 30.52 464.49 L30.41 461.82 C30.39 461.37 30.08 460.99 29.65 460.88 C29.47 460.84 29.29
								 460.81 29.1 460.77 C29.33 460.78 29.56 460.72 29.75 460.57 ZM35.1 471.48 C34.75 471.69 34.57 472.1
								 34.63 472.51 C34.84 473.72 34.77 474.94 34.41 476.13 C34.29 476.53 34.43 476.96 34.76 477.21 L36.81
								 478.81 C36.35 479.72 35.77 480.56 35.09 481.31 L32.7 480.1 C32.34 479.93 31.93 479.97 31.62 480.21
								 C30.62 481 29.48 481.55 28.22 481.85 C27.83 481.95 27.53 482.27 27.46 482.67 L27.05 485.19 C25.99
								 485.27 24.93 485.21 23.88 485.01 L23.78 482.46 C23.76 482.06 23.5 481.7 23.12 481.56 C21.92 481.13
								 20.83 480.43 19.95 479.55 C19.67 479.27 19.26 479.18 18.89 479.31 L16.37 480.24 C15.78 479.41 15.31
								 478.52 14.97 477.57 L17.21 476.21 C17.56 476 17.75 475.59 17.68 475.18 C17.47 473.97 17.54 472.75
								 17.9 471.56 C18.02 471.16 17.88 470.73 17.56 470.48 L15.5 468.88 C15.96 467.97 16.54 467.13 17.22
								 466.38 L19.61 467.59 C19.96 467.76 20.38 467.72 20.69 467.48 C21.68 466.7 22.85 466.13 24.09 465.84
								 C24.48 465.75 24.78 465.42 24.85 465.02 L25.27 462.5 C26.33 462.42 27.38 462.48 28.43 462.68 L28.53
								 465.23 C28.55 465.63 28.81 465.99 29.2 466.13 C30.38 466.56 31.48 467.26 32.36 468.14 C32.64 468.42
								 33.06 468.51 33.42 468.38 L35.94 467.44 C36.53 468.27 37 469.17 37.34 470.12 L35.1 471.48 ZM53.62
								 454.85 C53.25 455.1 53.07 455.56 53.18 456 C53.46 457.17 53.46 458.41 53.18 459.58 C53.07 460.01
								 53.25 460.47 53.62 460.72 L55.75 462.17 C55.36 463.06 54.85 463.89 54.23 464.65 L51.75 463.59 C51.37
								 463.43 50.93 463.5 50.62 463.77 C49.67 464.6 48.52 465.23 47.28 465.59 C46.86 465.72 46.56 466.08
								 46.51 466.52 L46.25 469 C45.21 469.13 44.17 469.13 43.13 469 L42.87 466.52 C42.82 466.08 42.52 465.72
								 42.1 465.59 C40.86 465.23 39.71 464.6 38.77 463.77 C38.45 463.5 38.01 463.43 37.63 463.59 L35.16
								 464.65 C34.54 463.89 34.03 463.06 33.63 462.17 L35.77 460.72 C36.14 460.47 36.31 460.02 36.21 459.58
								 C35.93 458.41 35.93 457.17 36.21 456 C36.31 455.56 36.14 455.1 35.77 454.85 L33.63 453.4 C34.03
								 452.52 34.54 451.69 35.16 450.92 L37.63 451.98 C38.02 452.15 38.46 452.08 38.77 451.8 C39.71 450.98
								 40.86 450.35 42.1 449.99 C42.52 449.86 42.82 449.5 42.87 449.06 L43.13 446.58 C44.17 446.45 45.21
								 446.45 46.25 446.58 L46.51 449.06 C46.56 449.5 46.86 449.86 47.28 449.99 C48.52 450.35 49.67 450.98
								 50.62 451.8 C50.93 452.08 51.37 452.15 51.75 451.98 L54.23 450.92 C54.85 451.69 55.36 452.52 55.75
								 453.4 L53.62 454.85 Z" class="st1"/>
				</g>
				<g id="shape18-16" v:mID="18" v:groupContext="shape">
					<title>Sheet.18</title>
					<path d="M107.5 423.54 C107.46 423.07 107.26 422.62 106.93 422.28 C106.86 422.2 99.79 414.8 95.39 408.51 C97.65
								 400.35 96.71 392.94 95.87 389 C97.09 388.92 98.38 388.57 99.27 387.64 C99.81 387.06 100.63 385.79
								 100.04 383.7 C94.47 363.84 82.17 362.48 78.93 362.48 C78.92 362.48 78.9 362.48 78.89 362.48 C76.25
								 361 64.72 355.13 48.82 355.12 C32.89 355.16 0 365.34 0 396.57 C0 414.28 5.63 423.42 10.61 431.49
								 C14.33 437.55 17.56 442.78 17.23 450.63 C16.64 465.12 5.34 483.91 5.22 484.1 C4.84 484.74 4.82 485.54
								 5.19 486.19 C5.56 486.84 6.24 487.24 6.99 487.24 L68.52 487.24 C69.16 487.24 69.76 486.94 70.15
								 486.43 C70.54 485.93 70.68 485.27 70.52 484.65 C69.76 481.75 68.43 473.41 71.33 469.6 C72.35 468.25
								 73.86 467.58 75.94 467.55 C84.98 467.41 90.49 465.89 93.27 462.79 C95.95 459.8 95.6 456.09 95.29
								 452.83 C95.17 451.6 95.06 450.43 95.11 449.36 C96.41 448.3 97.15 447.18 97.36 445.96 C97.59 444.62
								 97.13 443.54 96.63 442.73 C98.92 442.03 99.89 440.7 100.3 439.67 C101.22 437.38 100.26 434.8 98.78
								 432.24 C107.69 429.19 107.55 424.15 107.5 423.54 ZM95.1 429.02 C94.45 429.18 93.92 429.65 93.67
								 430.27 C93.43 430.89 93.5 431.59 93.87 432.15 C94.64 433.33 96.97 436.89 96.47 438.14 C96.36 438.42
								 95.87 438.68 95.12 438.86 C94.33 439.04 92.48 439.48 91.9 441.07 C91.37 442.5 92.23 443.67 92.75
								 444.37 C92.93 444.63 93.28 445.1 93.29 445.26 C93.29 445.26 93.19 445.72 91.97 446.55 C91.49 446.88
								 91.17 447.39 91.09 447.97 C90.85 449.72 91.02 451.5 91.18 453.22 C91.44 455.99 91.67 458.39 90.2
								 460.03 C88.29 462.16 83.47 463.3 75.87 463.42 C72.54 463.47 69.83 464.74 68.04 467.1 C64.61 471.61
								 65.3 479.15 65.98 483.11 L10.54 483.11 C13.91 476.93 20.86 462.82 21.36 450.8 C21.73 441.68 18.03
								 435.68 14.12 429.33 C9.44 421.72 4.13 413.11 4.13 396.57 C4.13 368.45 34.25 359.29 48.83 359.25
								 C48.89 359.25 48.94 359.25 48.99 359.25 C65.46 359.25 77.18 366.26 77.29 366.33 C77.68 366.56 78.12
								 366.66 78.58 366.62 C78.68 366.6 90.68 365.62 96.07 384.81 L96.07 384.82 C95.52 384.94 94.44 384.89
								 93.59 384.7 C92.86 384.54 92.1 384.79 91.6 385.34 C91.1 385.89 90.94 386.68 91.18 387.38 C91.21
								 387.48 94.5 397.4 91.16 408.27 C90.98 408.86 91.07 409.51 91.42 410.02 C95.18 415.62 101.13 422.13
								 103.21 424.35 C102.76 425.38 101.11 427.53 95.1 429.02 Z" class="st1"/>
				</g>
			</g>
		</g>
		<g id="group19-18" transform="translate(339.374,-171.379)" v:mID="19" v:groupContext="group">
			<title>Sheet.19</title>
			<g id="group20-19" v:mID="20" v:groupContext="group">
				<title>Brain-power_1_</title>
				<g id="shape21-20" v:mID="21" v:groupContext="shape" transform="translate(32.431,-89.3477)">
					<title>Sheet.21</title>
					<path d="M6.25 474.74 C2.8 474.74 0 477.54 0 480.99 C0 484.43 2.8 487.24 6.25 487.24 C9.69 487.24 12.5 484.43
								 12.5 480.99 C12.5 477.54 9.69 474.74 6.25 474.74 ZM6.25 485.17 C3.94 485.17 2.06 483.3 2.06 480.99
								 C2.06 478.68 3.94 476.81 6.25 476.81 C8.56 476.81 10.43 478.68 10.43 480.99 C10.43 483.3 8.56 485.17
								 6.25 485.17 Z" class="st1"/>
				</g>
				<g id="shape22-22" v:mID="22" v:groupContext="shape" transform="translate(19.6939,-53.9926)">
					<title>Sheet.22</title>
					<path d="M58.09 453.44 C57.49 451.76 56.56 450.23 55.32 448.89 C55.01 448.55 54.52 448.45 54.1 448.63 L51.5 449.74
								 C50.63 449.07 49.64 448.53 48.59 448.14 L48.32 445.53 C48.27 445.05 47.91 444.66 47.44 444.58 C45.62
								 444.23 43.77 444.23 41.94 444.58 C41.47 444.66 41.11 445.05 41.07 445.53 L40.79 448.14 C39.74 448.53
								 38.75 449.07 37.88 449.74 L36.49 449.14 C36.79 448.99 37.01 448.71 37.06 448.36 C37.33 446.55 37.33
								 444.72 37.06 442.9 C36.99 442.42 36.59 442.05 36.11 442.01 L32.28 441.71 C31.98 440.69 31.58 439.71
								 31.07 438.79 L33.56 435.86 C33.88 435.49 33.9 434.95 33.61 434.56 C32.52 433.08 31.22 431.79 29.75
								 430.7 C29.35 430.4 28.81 430.42 28.44 430.74 L25.52 433.24 C24.59 432.72 23.61 432.32 22.59 432.02
								 L22.29 428.2 C22.25 427.71 21.88 427.31 21.4 427.24 C19.59 426.97 17.75 426.97 15.94 427.24 C15.45
								 427.31 15.08 427.71 15.05 428.2 L14.74 432.02 C13.72 432.32 12.75 432.72 11.82 433.24 L8.9 430.74
								 C8.52 430.42 7.98 430.41 7.59 430.7 C6.12 431.78 4.82 433.08 3.73 434.55 C3.44 434.95 3.46 435.49
								 3.77 435.86 L6.27 438.79 C5.76 439.71 5.35 440.69 5.06 441.71 L1.23 442.01 C0.74 442.05 0.34 442.42
								 0.27 442.9 C0 444.72 0 446.55 0.27 448.37 C0.34 448.85 0.74 449.22 1.23 449.26 L5.06 449.56 C5.35
								 450.58 5.76 451.56 6.27 452.48 L3.77 455.41 C3.46 455.78 3.44 456.32 3.73 456.71 C4.82 458.19 6.12
								 459.48 7.59 460.57 C7.98 460.86 8.53 460.85 8.9 460.53 L11.82 458.03 C12.75 458.54 13.72 458.95
								 14.74 459.24 L15.05 463.07 C15.08 463.56 15.45 463.96 15.94 464.03 C16.84 464.17 17.76 464.23 18.67
								 464.23 C19.58 464.23 20.49 464.17 21.4 464.03 C21.88 463.96 22.25 463.56 22.29 463.07 L22.59 459.24
								 C23.61 458.95 24.59 458.54 25.52 458.03 L28.44 460.53 C28.61 460.67 28.82 460.74 29.03 460.76 C27.46
								 460.43 25.86 460.36 24.27 460.58 C23.83 460.64 23.48 460.97 23.41 461.41 L22.97 464.06 C21.9 464.38
								 20.88 464.88 19.97 465.51 L17.47 464.24 C17.09 464.05 16.62 464.12 16.31 464.42 C15.03 465.67 14.03
								 467.14 13.33 468.78 C13.15 469.2 13.28 469.69 13.64 469.97 L15.79 471.66 C15.56 472.7 15.49 473.78
								 15.6 474.83 L13.25 476.27 C12.86 476.5 12.68 476.97 12.8 477.4 C13.29 479.11 14.11 480.68 15.23
								 482.08 C15.5 482.42 15.96 482.54 16.36 482.39 L19 481.42 C19.83 482.15 20.77 482.75 21.79 483.2
								 L21.9 485.87 C21.92 486.32 22.23 486.7 22.66 486.81 C23.81 487.09 24.98 487.24 26.15 487.24 C26.78
								 487.24 27.41 487.2 28.04 487.11 C28.48 487.05 28.83 486.72 28.91 486.28 L29.34 483.63 C30.41 483.3
								 31.43 482.81 32.34 482.18 L34.84 483.45 C35.23 483.64 35.69 483.57 36 483.27 C37.28 482.02 38.29
								 480.55 38.98 478.9 C39.16 478.49 39.03 478 38.67 477.72 L36.52 476.03 C36.75 474.98 36.82 473.92
								 36.71 472.86 L39.07 471.42 C39.45 471.19 39.63 470.72 39.51 470.29 C39.07 468.75 38.35 467.33 37.4
								 466.04 L37.88 465.84 C38.76 466.51 39.74 467.05 40.79 467.43 L41.07 470.05 C41.11 470.52 41.47 470.91
								 41.94 471 C42.85 471.17 43.77 471.26 44.69 471.26 C45.61 471.26 46.53 471.17 47.45 471 C47.91 470.91
								 48.27 470.52 48.32 470.05 L48.59 467.43 C49.64 467.05 50.63 466.51 51.5 465.84 L54.1 466.95 C54.52
								 467.13 55.01 467.03 55.32 466.69 C56.56 465.35 57.49 463.82 58.09 462.13 C58.26 461.67 58.09 461.15
								 57.69 460.87 L55.43 459.34 C55.59 458.31 55.59 457.26 55.43 456.24 L57.69 454.7 C58.09 454.42 58.26
								 453.91 58.09 453.44 ZM31.48 452.97 L31.07 452.48 C31.58 451.56 31.98 450.58 32.28 449.56 L33.59
								 449.46 C32.7 450.52 32 451.7 31.48 452.97 ZM26.31 455.95 C25.96 455.65 25.46 455.62 25.07 455.86
								 C23.93 456.57 22.68 457.09 21.37 457.39 C20.92 457.49 20.59 457.88 20.55 458.33 L20.26 462.05 C19.2
								 462.16 18.13 462.16 17.07 462.05 L16.78 458.33 C16.74 457.88 16.42 457.49 15.97 457.39 C14.65 457.09
								 13.41 456.57 12.27 455.86 C11.88 455.61 11.37 455.65 11.02 455.95 L8.18 458.37 C7.36 457.7 6.61
								 456.94 5.93 456.12 L8.35 453.28 C8.65 452.93 8.69 452.43 8.45 452.04 C7.73 450.9 7.22 449.65 6.91
								 448.33 C6.81 447.89 6.43 447.56 5.97 447.52 L2.25 447.23 C2.15 446.17 2.15 445.1 2.25 444.04 L5.97
								 443.75 C6.43 443.71 6.81 443.38 6.91 442.94 C7.22 441.62 7.73 440.37 8.45 439.23 C8.69 438.84 8.65
								 438.34 8.35 437.99 L5.93 435.15 C6.61 434.33 7.36 433.57 8.18 432.9 L11.02 435.32 C11.37 435.62
								 11.88 435.66 12.27 435.41 C13.41 434.7 14.65 434.18 15.97 433.88 C16.42 433.78 16.74 433.39 16.78
								 432.94 L17.07 429.22 C18.13 429.11 19.2 429.11 20.26 429.22 L20.55 432.94 C20.59 433.39 20.92 433.78
								 21.37 433.88 C22.68 434.18 23.93 434.7 25.07 435.41 C25.46 435.65 25.96 435.62 26.31 435.32 L29.15
								 432.9 C29.97 433.57 30.73 434.33 31.4 435.15 L28.98 437.99 C28.68 438.34 28.64 438.84 28.89 439.23
								 C29.6 440.37 30.12 441.62 30.43 442.94 C30.53 443.38 30.91 443.71 31.37 443.75 L35.09 444.04 C35.19
								 445.1 35.19 446.17 35.09 447.23 L31.37 447.52 C30.91 447.56 30.53 447.88 30.43 448.33 C30.12 449.65
								 29.6 450.9 28.89 452.04 C28.64 452.43 28.68 452.93 28.98 453.28 L31.4 456.12 C30.73 456.94 29.97
								 457.7 29.15 458.37 L26.31 455.95 ZM29.75 460.57 C31.22 459.48 32.52 458.19 33.61 456.71 C33.74 456.54
								 33.78 456.33 33.79 456.12 L33.96 456.24 C33.8 457.26 33.8 458.31 33.96 459.34 L31.7 460.87 C31.29
								 461.15 31.12 461.67 31.29 462.13 C31.81 463.61 32.61 464.95 33.62 466.16 L33.31 466.27 C32.48 465.54
								 31.53 464.94 30.52 464.49 L30.41 461.82 C30.39 461.37 30.08 460.99 29.65 460.88 C29.47 460.84 29.29
								 460.81 29.1 460.77 C29.33 460.78 29.56 460.72 29.75 460.57 ZM35.1 471.48 C34.75 471.69 34.57 472.1
								 34.63 472.51 C34.84 473.72 34.77 474.94 34.41 476.13 C34.29 476.53 34.43 476.96 34.76 477.21 L36.81
								 478.81 C36.35 479.72 35.77 480.56 35.09 481.31 L32.7 480.1 C32.34 479.93 31.93 479.97 31.62 480.21
								 C30.62 481 29.48 481.55 28.22 481.85 C27.83 481.95 27.53 482.27 27.46 482.67 L27.05 485.19 C25.99
								 485.27 24.93 485.21 23.88 485.01 L23.78 482.46 C23.76 482.06 23.5 481.7 23.12 481.56 C21.92 481.13
								 20.83 480.43 19.95 479.55 C19.67 479.27 19.26 479.18 18.89 479.31 L16.37 480.24 C15.78 479.41 15.31
								 478.52 14.97 477.57 L17.21 476.21 C17.56 476 17.75 475.59 17.68 475.18 C17.47 473.97 17.54 472.75
								 17.9 471.56 C18.02 471.16 17.88 470.73 17.56 470.48 L15.5 468.88 C15.96 467.97 16.54 467.13 17.22
								 466.38 L19.61 467.59 C19.96 467.76 20.38 467.72 20.69 467.48 C21.68 466.7 22.85 466.13 24.09 465.84
								 C24.48 465.75 24.78 465.42 24.85 465.02 L25.27 462.5 C26.33 462.42 27.38 462.48 28.43 462.68 L28.53
								 465.23 C28.55 465.63 28.81 465.99 29.2 466.13 C30.38 466.56 31.48 467.26 32.36 468.14 C32.64 468.42
								 33.06 468.51 33.42 468.38 L35.94 467.44 C36.53 468.27 37 469.17 37.34 470.12 L35.1 471.48 ZM53.62
								 454.85 C53.25 455.1 53.07 455.56 53.18 456 C53.46 457.17 53.46 458.41 53.18 459.58 C53.07 460.01
								 53.25 460.47 53.62 460.72 L55.75 462.17 C55.36 463.06 54.85 463.89 54.23 464.65 L51.75 463.59 C51.37
								 463.43 50.93 463.5 50.62 463.77 C49.67 464.6 48.52 465.23 47.28 465.59 C46.86 465.72 46.56 466.08
								 46.51 466.52 L46.25 469 C45.21 469.13 44.17 469.13 43.13 469 L42.87 466.52 C42.82 466.08 42.52 465.72
								 42.1 465.59 C40.86 465.23 39.71 464.6 38.77 463.77 C38.45 463.5 38.01 463.43 37.63 463.59 L35.16
								 464.65 C34.54 463.89 34.03 463.06 33.63 462.17 L35.77 460.72 C36.14 460.47 36.31 460.02 36.21 459.58
								 C35.93 458.41 35.93 457.17 36.21 456 C36.31 455.56 36.14 455.1 35.77 454.85 L33.63 453.4 C34.03
								 452.52 34.54 451.69 35.16 450.92 L37.63 451.98 C38.02 452.15 38.46 452.08 38.77 451.8 C39.71 450.98
								 40.86 450.35 42.1 449.99 C42.52 449.86 42.82 449.5 42.87 449.06 L43.13 446.58 C44.17 446.45 45.21
								 446.45 46.25 446.58 L46.51 449.06 C46.56 449.5 46.86 449.86 47.28 449.99 C48.52 450.35 49.67 450.98
								 50.62 451.8 C50.93 452.08 51.37 452.15 51.75 451.98 L54.23 450.92 C54.85 451.69 55.36 452.52 55.75
								 453.4 L53.62 454.85 Z" class="st1"/>
				</g>
				<g id="shape23-24" v:mID="23" v:groupContext="shape">
					<title>Sheet.23</title>
					<path d="M107.5 423.54 C107.46 423.07 107.26 422.62 106.93 422.28 C106.86 422.2 99.79 414.8 95.39 408.51 C97.65
								 400.35 96.71 392.94 95.87 389 C97.09 388.92 98.38 388.57 99.27 387.64 C99.81 387.06 100.63 385.79
								 100.04 383.7 C94.47 363.84 82.17 362.48 78.93 362.48 C78.92 362.48 78.9 362.48 78.89 362.48 C76.25
								 361 64.72 355.13 48.82 355.12 C32.89 355.16 0 365.34 0 396.57 C0 414.28 5.63 423.42 10.61 431.49
								 C14.33 437.55 17.56 442.78 17.23 450.63 C16.64 465.12 5.34 483.91 5.22 484.1 C4.84 484.74 4.82 485.54
								 5.19 486.19 C5.56 486.84 6.24 487.24 6.99 487.24 L68.52 487.24 C69.16 487.24 69.76 486.94 70.15
								 486.43 C70.54 485.93 70.68 485.27 70.52 484.65 C69.76 481.75 68.43 473.41 71.33 469.6 C72.35 468.25
								 73.86 467.58 75.94 467.55 C84.98 467.41 90.49 465.89 93.27 462.79 C95.95 459.8 95.6 456.09 95.29
								 452.83 C95.17 451.6 95.06 450.43 95.11 449.36 C96.41 448.3 97.15 447.18 97.36 445.96 C97.59 444.62
								 97.13 443.54 96.63 442.73 C98.92 442.03 99.89 440.7 100.3 439.67 C101.22 437.38 100.26 434.8 98.78
								 432.24 C107.69 429.19 107.55 424.15 107.5 423.54 ZM95.1 429.02 C94.45 429.18 93.92 429.65 93.67
								 430.27 C93.43 430.89 93.5 431.59 93.87 432.15 C94.64 433.33 96.97 436.89 96.47 438.14 C96.36 438.42
								 95.87 438.68 95.12 438.86 C94.33 439.04 92.48 439.48 91.9 441.07 C91.37 442.5 92.23 443.67 92.75
								 444.37 C92.93 444.63 93.28 445.1 93.29 445.26 C93.29 445.26 93.19 445.72 91.97 446.55 C91.49 446.88
								 91.17 447.39 91.09 447.97 C90.85 449.72 91.02 451.5 91.18 453.22 C91.44 455.99 91.67 458.39 90.2
								 460.03 C88.29 462.16 83.47 463.3 75.87 463.42 C72.54 463.47 69.83 464.74 68.04 467.1 C64.61 471.61
								 65.3 479.15 65.98 483.11 L10.54 483.11 C13.91 476.93 20.86 462.82 21.36 450.8 C21.73 441.68 18.03
								 435.68 14.12 429.33 C9.44 421.72 4.13 413.11 4.13 396.57 C4.13 368.45 34.25 359.29 48.83 359.25
								 C48.89 359.25 48.94 359.25 48.99 359.25 C65.46 359.25 77.18 366.26 77.29 366.33 C77.68 366.56 78.12
								 366.66 78.58 366.62 C78.68 366.6 90.68 365.62 96.07 384.81 L96.07 384.82 C95.52 384.94 94.44 384.89
								 93.59 384.7 C92.86 384.54 92.1 384.79 91.6 385.34 C91.1 385.89 90.94 386.68 91.18 387.38 C91.21
								 387.48 94.5 397.4 91.16 408.27 C90.98 408.86 91.07 409.51 91.42 410.02 C95.18 415.62 101.13 422.13
								 103.21 424.35 C102.76 425.38 101.11 427.53 95.1 429.02 Z" class="st1"/>
				</g>
			</g>
		</g>
		<g id="shape28-26" v:mID="28" v:groupContext="shape" transform="translate(87.3579,-308.178) rotate(-1.30195)">
			<title>Arced arrow</title>
			<v:userDefs>
				<v:ud v:nameU="ControlX" v:val="VT0(0.059055118110236):24"/>
				<v:ud v:nameU="Scale" v:val="VT0(1):26"/>
				<v:ud v:nameU="AntiScale" v:val="VT0(1):26"/>
				<v:ud v:nameU="visVersion" v:val="VT0(15):26"/>
				<v:ud v:nameU="ControlX" v:prompt="" v:val="VT0(0.15748031):1"/>
			</v:userDefs>
			<path d="M116.73 479.23 L112.73 483.24 L124.76 487.24 L120.74 475.21 L116.73 479.23 Z" class="st2"/>
			<path d="M8.02 479.23 A82.8071 82.8071 0 0 1 116.73 479.23" class="st3"/>
			<path d="M116.73 479.23 L112.73 483.24 L124.76 487.24 L120.74 475.21 L116.73 479.23" class="st3"/>
		</g>
		<g id="shape30-30" v:mID="30" v:groupContext="shape" transform="translate(236.177,-308.178) rotate(-1.30195)">
			<title>Arced arrow.30</title>
			<v:userDefs>
				<v:ud v:nameU="ControlX" v:val="VT0(0.059055118110236):24"/>
				<v:ud v:nameU="Scale" v:val="VT0(1):26"/>
				<v:ud v:nameU="AntiScale" v:val="VT0(1):26"/>
				<v:ud v:nameU="visVersion" v:val="VT0(15):26"/>
				<v:ud v:nameU="ControlX" v:prompt="" v:val="VT0(0.15748031):1"/>
			</v:userDefs>
			<path d="M116.73 479.23 L112.73 483.24 L124.76 487.24 L120.74 475.21 L116.73 479.23 Z" class="st2"/>
			<path d="M8.02 479.23 A82.8071 82.8071 0 0 1 116.73 479.23" class="st3"/>
			<path d="M116.73 479.23 L112.73 483.24 L124.76 487.24 L120.74 475.21 L116.73 479.23" class="st3"/>
		</g>
		<g id="group34-34" transform="translate(71.3055,-336.65)" v:mID="34" v:groupContext="group">
			<title>Sheet.34</title>
			<g id="group35-35" v:mID="35" v:groupContext="group">
				<title>Sheet.35</title>
				<g id="shape36-36" v:mID="36" v:groupContext="shape" transform="translate(31.4709,-58.6571)">
					<title>Sheet.36</title>
					<path d="M1.63 487.24 C2.01 487.24 2.38 487.09 2.66 486.81 L8.85 480.72 C9.43 480.16 9.44 479.21 8.87 478.64
								 C8.3 478.06 7.36 478.05 6.78 478.62 L0.59 484.71 C0.01 485.27 0 486.22 0.58 486.79 C0.86 487.09
								 1.24 487.24 1.63 487.24 Z" class="st4"/>
				</g>
				<g id="shape37-38" v:mID="37" v:groupContext="shape" transform="translate(0.280726,-58.6571)">
					<title>Sheet.37</title>
					<path d="M6.91 486.82 C7.2 487.1 7.56 487.24 7.93 487.24 C8.32 487.24 8.7 487.09 9 486.79 C9.57 486.22 9.56 485.27
								 8.97 484.71 L2.66 478.62 C2.08 478.05 1.15 478.08 0.58 478.65 C0 479.23 0.01 480.18 0.61 480.74
								 L6.91 486.82 Z" class="st4"/>
				</g>
				<g id="shape38-40" v:mID="38" v:groupContext="shape" transform="translate(19.119,-60.238)">
					<title>Sheet.38</title>
					<path d="M1.48 487.24 C2.29 487.24 2.96 486.57 2.96 485.76 L2.96 476.85 C2.96 476.04 2.29 475.37 1.48 475.37
								 C0.66 475.37 0 476.04 0 476.85 L0 485.76 C0 486.57 0.66 487.24 1.48 487.24 Z" class="st4"/>
				</g>
				<g id="shape39-42" v:mID="39" v:groupContext="shape">
					<title>Sheet.39</title>
					<path d="M40.13 444.52 C38.95 440.33 36.45 436.74 32.89 434.12 C29.34 431.52 25.09 430.15 20.6 430.15 C16.15
								 430.15 11.92 431.52 8.39 434.14 C4.85 436.75 2.35 440.36 1.17 444.54 C0 448.62 0.3 453.05 2.01 457.02
								 C3.59 460.7 6.32 463.85 9.77 465.98 L9.77 470.66 L9.75 476.75 C9.75 476.76 9.75 476.78 9.75 476.78
								 C9.88 482.55 14.75 487.24 20.6 487.24 C26.57 487.24 31.43 482.52 31.43 476.73 L31.43 465.96 C34.91
								 463.83 37.68 460.67 39.27 456.99 C40.99 453.05 41.3 448.62 40.13 444.52 ZM20.6 484.28 C16.87 484.28
								 13.7 481.67 12.9 478.21 L28.31 478.21 C27.6 481.67 24.41 484.28 20.6 484.28 ZM28.49 475.26 L28.47
								 475.26 L12.72 475.26 L12.74 472.12 L28.49 472.12 L28.49 475.26 ZM29.23 463.82 C28.75 464.09 28.46
								 464.57 28.46 465.12 L28.46 469.17 L12.72 469.17 L12.72 465.12 C12.72 464.59 12.43 464.09 11.97 463.83
								 C5.26 460.07 1.98 452.47 4.02 445.34 C6.04 438.14 12.85 433.1 20.6 433.1 C28.52 433.1 35.22 438.02
								 37.29 445.34 C39.33 452.47 36.01 460.08 29.23 463.82 Z" class="st4"/>
				</g>
			</g>
		</g>
		<g id="group40-44" transform="translate(204.306,-324.757)" v:mID="40" v:groupContext="group">
			<title>Sheet.40</title>
			<g id="shape41-45" v:mID="41" v:groupContext="shape" transform="translate(50.3085,-93.7675)">
				<title>Sheet.41</title>
				<path d="M2.6 487.24 C3.21 487.24 3.8 487 4.25 486.55 L14.15 476.82 C15.07 475.92 15.09 474.41 14.17 473.49 C13.27
							 472.57 11.76 472.55 10.84 473.47 L0.94 483.2 C0.02 484.1 0 485.61 0.92 486.53 C1.37 487 1.98 487.24
							 2.6 487.24 Z" class="st4"/>
			</g>
			<g id="shape42-47" v:mID="42" v:groupContext="shape" transform="translate(0.448762,-93.7675)">
				<title>Sheet.42</title>
				<path d="M11.05 486.58 C11.5 487.03 12.09 487.24 12.68 487.24 C13.3 487.24 13.91 487 14.38 486.53 C15.31 485.61 15.28
							 484.1 14.34 483.2 L4.25 473.47 C3.33 472.55 1.84 472.59 0.92 473.52 C0 474.44 0.02 475.95 0.97 476.85
							 L11.05 486.58 Z" class="st4"/>
			</g>
			<g id="shape43-49" v:mID="43" v:groupContext="shape" transform="translate(30.563,-96.2948)">
				<title>Sheet.43</title>
				<path d="M2.36 487.24 C3.66 487.24 4.72 486.17 4.72 484.88 L4.72 470.63 C4.72 469.33 3.66 468.27 2.36 468.27 C1.06
							 468.27 0 469.33 0 470.63 L0 484.88 C0 486.17 1.06 487.24 2.36 487.24 Z" class="st4"/>
			</g>
			<g id="shape44-51" v:mID="44" v:groupContext="shape">
				<title>Sheet.44</title>
				<path d="M64.15 418.96 C62.26 412.25 58.27 406.51 52.58 402.33 C46.91 398.17 40.11 395.97 32.92 395.97 C25.82 395.97
							 19.06 398.17 13.42 402.35 C7.75 406.53 3.76 412.29 1.87 418.98 C0 425.5 0.47 432.58 3.21 438.94 C5.74
							 444.82 10.11 449.85 15.61 453.25 L15.61 460.74 L15.59 470.47 C15.59 470.49 15.59 470.52 15.59 470.52
							 C15.8 479.75 23.57 487.24 32.92 487.24 C42.47 487.24 50.24 479.7 50.24 470.44 L50.24 453.23 C55.81 449.83
							 60.23 444.77 62.78 438.89 C65.52 432.58 66.02 425.5 64.15 418.96 ZM32.92 482.51 C26.97 482.51 21.89
							 478.33 20.62 472.81 L45.25 472.81 C44.12 478.33 39.02 482.51 32.92 482.51 ZM45.54 468.08 L45.51 468.08
							 L20.34 468.08 L20.36 463.08 L45.54 463.08 L45.54 468.08 ZM46.72 449.8 C45.96 450.23 45.49 451.01 45.49
							 451.88 L45.49 458.35 L20.34 458.35 L20.34 451.88 C20.34 451.03 19.86 450.23 19.13 449.83 C8.41 443.8
							 3.16 431.66 6.42 420.25 C9.66 408.75 20.55 400.7 32.92 400.7 C45.58 400.7 56.31 408.56 59.61 420.25
							 C62.87 431.66 57.56 443.83 46.72 449.8 Z" class="st4"/>
			</g>
		</g>
		<g id="group45-53" transform="translate(430.108,-279.958)" v:mID="45" v:groupContext="group">
			<title>Sheet.45</title>
			<g id="shape46-54" v:mID="46" v:groupContext="shape" transform="translate(82.0688,-152.964)">
				<title>Sheet.46</title>
				<path d="M4.24 487.24 C5.24 487.24 6.2 486.85 6.94 486.12 L23.08 470.25 C24.58 468.78 24.62 466.32 23.12 464.81 C21.65
							 463.31 19.19 463.27 17.69 464.77 L1.54 480.65 C0.04 482.11 0 484.58 1.5 486.08 C2.23 486.85 3.24 487.24
							 4.24 487.24 Z" class="st4"/>
			</g>
			<g id="shape47-56" v:mID="47" v:groupContext="shape" transform="translate(0.732069,-152.964)">
				<title>Sheet.47</title>
				<path d="M18.03 486.16 C18.76 486.89 19.73 487.24 20.69 487.24 C21.69 487.24 22.69 486.85 23.46 486.08 C24.97 484.58
							 24.93 482.11 23.39 480.65 L6.94 464.77 C5.43 463.27 3.01 463.35 1.5 464.85 C0 466.35 0.04 468.82 1.58
							 470.28 L18.03 486.16 Z" class="st4"/>
			</g>
			<g id="shape48-58" v:mID="48" v:groupContext="shape" transform="translate(49.8577,-157.087)">
				<title>Sheet.48</title>
				<path d="M3.85 487.24 C5.97 487.24 7.71 485.5 7.71 483.38 L7.71 460.15 C7.71 458.03 5.97 456.3 3.85 456.3 C1.73 456.3
							 0 458.03 0 460.15 L0 483.38 C0 485.5 1.73 487.24 3.85 487.24 Z" class="st4"/>
			</g>
			<g id="shape49-60" v:mID="49" v:groupContext="shape">
				<title>Sheet.49</title>
				<path d="M104.65 375.85 C101.56 364.91 95.05 355.54 85.77 348.72 C76.52 341.94 65.42 338.36 53.71 338.36 C42.11 338.36
							 31.09 341.94 21.89 348.76 C12.64 355.58 6.13 364.98 3.04 375.89 C0 386.52 0.77 398.08 5.24 408.44 C9.36
							 418.04 16.49 426.24 25.47 431.79 L25.47 444.01 L25.43 459.88 C25.43 459.92 25.43 459.96 25.43 459.96
							 C25.78 475.02 38.45 487.24 53.71 487.24 C69.28 487.24 81.95 474.95 81.95 459.84 L81.95 431.75 C91.05
							 426.21 98.25 417.96 102.41 408.37 C106.88 398.08 107.69 386.52 104.65 375.85 ZM53.71 479.53 C44 479.53
							 35.72 472.71 33.64 463.7 L73.82 463.7 C71.97 472.71 63.65 479.53 53.71 479.53 ZM74.29 455.99 L74.25
							 455.99 L33.17 455.99 L33.21 447.82 L74.29 447.82 L74.29 455.99 ZM76.21 426.17 C74.98 426.86 74.21 428.13
							 74.21 429.56 L74.21 440.12 L33.17 440.12 L33.17 429.56 C33.17 428.17 32.4 426.86 31.21 426.21 C13.72
							 416.38 5.16 396.58 10.48 377.97 C15.76 359.2 33.52 346.06 53.71 346.06 C74.36 346.06 91.86 358.89 97.25
							 377.97 C102.57 396.58 93.9 416.42 76.21 426.17 Z" class="st4"/>
			</g>
		</g>
	</g>
</svg>
